…
``` r

rnaturalearth::countries110 |>
  sf::st_drop_geometry() |>
  y_data_to_df_summary()
#> # A tibble: 168 × 3
#>    row_number y_vars     y_values                  
#>         <int> <chr>      <chr>                     
#>  1          1 ABBREV     Fiji, Tanz., W. Sah., Can.
#>  2          2 ABBREV_LEN 4, 5, 7, 4                
#>  3          3 ADM0_A3    FJI, TZA, SAH, CAN        
#>  4          4 ADM0_A3_AR FJI, TZA, SAH, CAN        
#>  5          5 ADM0_A3_BD FJI, TZA, SAH, CAN        
#>  6          6 ADM0_A3_BR FJI, TZA, SAH, CAN        
#>  7          7 ADM0_A3_CN FJI, TZA, SAH, CAN        
#>  8          8 ADM0_A3_DE FJI, TZA, SAH, CAN        
#>  9          9 ADM0_A3_EG FJI, TZA, SAH, CAN        
#> 10         10 ADM0_A3_ES FJI, TZA, SAH, CAN        
#> # ℹ 158 more rows
```
…
## and performing the join (not very interesting - need a better example!)

``` r
unvotes::un_votes %>% 
  viz_left_join(y = gapminder::gapminder,
                by = join_by(country == country))
#> Warning in left_join(x, y, by, ...): Detected an unexpected many-to-many relationship between `x` and `y`.
#> ℹ Row 1 of `x` matches multiple rows in `y`.
#> ℹ Row 1609 of `y` matches multiple rows in `x`.
#> ℹ If a many-to-many relationship is expected, set `relationship =
#>   "many-to-many"` to silence this warning.
#> # A tibble: 7,813,610 × 9
#>     rcid country     country_code vote  continent  year lifeExp    pop gdpPercap
#>    <dbl> <chr>       <chr>        <fct> <fct>     <int>   <dbl>  <int>     <dbl>
#>  1     3 United Sta… US           yes   Americas   1952    68.4 1.58e8    13990.
#>  2     3 United Sta… US           yes   Americas   1957    69.5 1.72e8    14847.
#>  3     3 United Sta… US           yes   Americas   1962    70.2 1.87e8    16173.
#>  4     3 United Sta… US           yes   Americas   1967    70.8 1.99e8    19530.
#>  5     3 United Sta… US           yes   Americas   1972    71.3 2.10e8    21806.
#>  6     3 United Sta… US           yes   Americas   1977    73.4 2.20e8    24073.
#>  7     3 United Sta… US           yes   Americas   1982    74.6 2.32e8    25010.
#>  8     3 United Sta… US           yes   Americas   1987    75.0 2.43e8    29884.
#>  9     3 United Sta… US           yes   Americas   1992    76.1 2.57e8    32004.
#> 10     3 United Sta… US           yes   Americas   1997    76.8 2.73e8    35767.
#> # ℹ 7,813,600 more rows
```

## And left_join() arguments are usable.

``` r
unvotes::un_votes %>% 
  viz_left_join(y = gapminder::gapminder,
                by = join_by(country == country), 
                relationship = "many-to-many")
#> # A tibble: 7,813,610 × 9
#>     rcid country     country_code vote  continent  year lifeExp    pop gdpPercap
#>    <dbl> <chr>       <chr>        <fct> <fct>     <int>   <dbl>  <int>     <dbl>
#>  1     3 United Sta… US           yes   Americas   1952    68.4 1.58e8    13990.
#>  2     3 United Sta… US           yes   Americas   1957    69.5 1.72e8    14847.
#>  3     3 United Sta… US           yes   Americas   1962    70.2 1.87e8    16173.
#>  4     3 United Sta… US           yes   Americas   1967    70.8 1.99e8    19530.
#>  5     3 United Sta… US           yes   Americas   1972    71.3 2.10e8    21806.
#>  6     3 United Sta… US           yes   Americas   1977    73.4 2.20e8    24073.
#>  7     3 United Sta… US           yes   Americas   1982    74.6 2.32e8    25010.
#>  8     3 United Sta… US           yes   Americas   1987    75.0 2.43e8    29884.
#>  9     3 United Sta… US           yes   Americas   1992    76.1 2.57e8    32004.
#> 10     3 United Sta… US           yes   Americas   1997    76.8 2.73e8    35767.
#> # ℹ 7,813,600 more rows
```

# And here we do a bit smaller join…

``` r
unvotes::un_votes %>% 
  filter(rcid == 3) %>% 
  viz_left_join(y = gapminder::gapminder %>% 
                  filter(year == min(year)),
                by = join_by(country == country))
#> # A tibble: 51 × 9
#>     rcid country     country_code vote  continent  year lifeExp    pop gdpPercap
#>    <dbl> <chr>       <chr>        <fct> <fct>     <int>   <dbl>  <int>     <dbl>
#>  1     3 United Sta… US           yes   Americas   1952    68.4 1.58e8    13990.
#>  2     3 Canada      CA           no    Americas   1952    68.8 1.48e7    11367.
#>  3     3 Cuba        CU           yes   Americas   1952    59.4 6.01e6     5587.
#>  4     3 Haiti       HT           yes   Americas   1952    37.6 3.20e6     1840.
#>  5     3 Dominican … DO           yes   Americas   1952    45.9 2.49e6     1398.
#>  6     3 Mexico      MX           yes   Americas   1952    50.8 3.01e7     3478.
#>  7     3 Guatemala   GT           yes   Americas   1952    42.0 3.15e6     2428.
#>  8     3 Honduras    HN           yes   Americas   1952    41.9 1.52e6     2195.
#>  9     3 El Salvador SV           yes   Americas   1952    45.3 2.04e6     3048.
#> 10     3 Nicaragua   NI           yes   Americas   1952    42.3 1.17e6     3112.
#> # ℹ 41 more rows
```

# And we can specify that a natural join is allowed.

``` r
unvotes::un_votes |>
  viz_left_join(unvotes::un_roll_calls,
                natural_join = T)
#> Joining with `by = join_by(rcid)`
#> # A tibble: 869,937 × 12
#>     rcid country country_code vote  session importantvote date       unres amend
#>    <dbl> <chr>   <chr>        <fct>   <dbl>         <int> <date>     <chr> <int>
#>  1     3 United… US           yes         1             0 1946-01-01 R/1/…     1
#>  2     3 Canada  CA           no          1             0 1946-01-01 R/1/…     1
#>  3     3 Cuba    CU           yes         1             0 1946-01-01 R/1/…     1
#>  4     3 Haiti   HT           yes         1             0 1946-01-01 R/1/…     1
#>  5     3 Domini… DO           yes         1             0 1946-01-01 R/1/…     1
#>  6     3 Mexico  MX           yes         1             0 1946-01-01 R/1/…     1
#>  7     3 Guatem… GT           yes         1             0 1946-01-01 R/1/…     1
#>  8     3 Hondur… HN           yes         1             0 1946-01-01 R/1/…     1
#>  9     3 El Sal… SV           yes         1             0 1946-01-01 R/1/…     1
#> 10     3 Nicara… NI           yes         1             0 1946-01-01 R/1/…     1
#> # ℹ 869,927 more rows
#> # ℹ 3 more variables: para <int>, short <chr>, descr <chr>
```
…
``` r

unvotes::un_votes |>
  viz_left_join(unvotes::un_roll_calls,
                natural_join = T)
#> Joining with `by = join_by(rcid)`
#> # A tibble: 869,937 × 12
#>     rcid country country_code vote  session importantvote date       unres amend
#>    <dbl> <chr>   <chr>        <fct>   <dbl>         <int> <date>     <chr> <int>
#>  1     3 United… US           yes         1             0 1946-01-01 R/1/…     1
#>  2     3 Canada  CA           no          1             0 1946-01-01 R/1/…     1
#>  3     3 Cuba    CU           yes         1             0 1946-01-01 R/1/…     1
#>  4     3 Haiti   HT           yes         1             0 1946-01-01 R/1/…     1
#>  5     3 Domini… DO           yes         1             0 1946-01-01 R/1/…     1
#>  6     3 Mexico  MX           yes         1             0 1946-01-01 R/1/…     1
#>  7     3 Guatem… GT           yes         1             0 1946-01-01 R/1/…     1
#>  8     3 Hondur… HN           yes         1             0 1946-01-01 R/1/…     1
#>  9     3 El Sal… SV           yes         1             0 1946-01-01 R/1/…     1
#> 10     3 Nicara… NI           yes         1             0 1946-01-01 R/1/…     1
#> # ℹ 869,927 more rows
#> # ℹ 3 more variables: para <int>, short <chr>, descr <chr>
```
…
``` r


unvotes::un_votes |>
  viz_left_join(unvotes::un_roll_calls,
                natural_join = T) %>% 
  mutate(year = year(date)) %>% 
  viz_left_join(gapminder::gapminder, 
                natural_join = T)
#> Joining with `by = join_by(rcid)`
#> Joining with `by = join_by(country, year)`
#> # A tibble: 869,937 × 17
#>     rcid country country_code vote  session importantvote date       unres amend
#>    <dbl> <chr>   <chr>        <fct>   <dbl>         <int> <date>     <chr> <int>
#>  1     3 United… US           yes         1             0 1946-01-01 R/1/…     1
#>  2     3 Canada  CA           no          1             0 1946-01-01 R/1/…     1
#>  3     3 Cuba    CU           yes         1             0 1946-01-01 R/1/…     1
#>  4     3 Haiti   HT           yes         1             0 1946-01-01 R/1/…     1
#>  5     3 Domini… DO           yes         1             0 1946-01-01 R/1/…     1
#>  6     3 Mexico  MX           yes         1             0 1946-01-01 R/1/…     1
#>  7     3 Guatem… GT           yes         1             0 1946-01-01 R/1/…     1
#>  8     3 Hondur… HN           yes         1             0 1946-01-01 R/1/…     1
#>  9     3 El Sal… SV           yes         1             0 1946-01-01 R/1/…     1
#> 10     3 Nicara… NI           yes         1             0 1946-01-01 R/1/…     1
#> # ℹ 869,927 more rows
#> # ℹ 8 more variables: para <int>, short <chr>, descr <chr>, year <dbl>,
#> #   continent <fct>, lifeExp <dbl>, pop <int>, gdpPercap <dbl>
```
…
